Date,High
2016-02-01T00:00:00.000Z,718.78
2016-02-02T00:00:00.000Z,719.86
2016-02-03T00:00:00.000Z,723.34
2016-02-04T00:00:00.000Z,718.58
2016-02-05T00:00:00.000Z,716.35
2016-02-08T00:00:00.000Z,715.56
2016-02-09T00:00:00.000Z,716.45
2016-02-10T00:00:00.000Z,715.92
2016-02-11T00:00:00.000Z,716.78
2016-02-12T00:00:00.000Z,717.67
2016-02-15T00:00:00.000Z,720.43
2016-02-16T00:00:00.000Z,721.44
2016-02-17T00:00:00.000Z,723.04
2016-02-18T00:00:00.000Z,723.26
2016-02-19T00:00:00.000Z,725.28
2016-02-22T00:00:00.000Z,726.49
2016-02-23T00:00:00.000Z,728.43
2016-02-24T00:00:00.000Z,725.68
2016-02-25T00:00:00.000Z,723.67
2016-02-26T00:00:00.000Z,726.06
2016-02-29T00:00:00.000Z,726.41
2016-03-01T00:00:00.000Z,726.16
2016-03-02T00:00:00.000Z,725.95
2016-03-03T00:00:00.000Z,726.05
2016-05-30T00:00:00.000Z,720.5
2016-05-31T00:00:00.000Z,719.6
2016-06-01T00:00:00.000Z,720.09
2016-06-02T00:00:00.000Z,719.79
2016-06-03T00:00:00.000Z,719.16
2016-06-06T00:00:00.000Z,718.47
2016-06-07T00:00:00.000Z,719.85
2016-06-08T00:00:00.000Z,719.69
2016-06-09T00:00:00.000Z,719.63
2016-06-10T00:00:00.000Z,720.47
2016-06-13T00:00:00.000Z,720.7
2016-06-14T00:00:00.000Z,720.69
2016-06-15T00:00:00.000Z,721.17
2016-06-16T00:00:00.000Z,720.47
2016-06-17T00:00:00.000Z,721.89
2016-06-20T00:00:00.000Z,721.62
2016-06-21T00:00:00.000Z,722.73
2016-06-22T00:00:00.000Z,722.92
2016-06-23T00:00:00.000Z,722.84
2016-06-24T00:00:00.000Z,722.84
2016-06-27T00:00:00.000Z,722.86
2016-06-28T00:00:00.000Z,722.8
2016-06-29T00:00:00.000Z,723.02
2016-06-30T00:00:00.000Z,723.22
2016-09-28T00:00:00.000Z,783.45
2016-09-29T00:00:00.000Z,783.73
2016-09-30T00:00:00.000Z,781.34
2016-10-03T00:00:00.000Z,780.7
2016-10-04T00:00:00.000Z,776.74
2016-10-05T00:00:00.000Z,779.09
2016-10-06T00:00:00.000Z,778.22
2016-10-07T00:00:00.000Z,780.64
2016-10-10T00:00:00.000Z,781.52
2016-10-11T00:00:00.000Z,780.09
2016-10-12T00:00:00.000Z,780.27
2016-10-13T00:00:00.000Z,778.87
2016-10-14T00:00:00.000Z,777.44
2016-10-17T00:00:00.000Z,778.59
2016-10-18T00:00:00.000Z,776.21
2016-10-19T00:00:00.000Z,775.46
2016-10-20T00:00:00.000Z,775.34
2016-10-21T00:00:00.000Z,774.41
2016-10-24T00:00:00.000Z,771.96
2016-10-25T00:00:00.000Z,771.26
2016-10-26T00:00:00.000Z,769.95
2016-10-27T00:00:00.000Z,769.66
2016-10-28T00:00:00.000Z,770.49
2016-10-31T00:00:00.000Z,771.42
2017-01-26T00:00:00.000Z,816.94
2017-01-27T00:00:00.000Z,813.54
2017-01-30T00:00:00.000Z,810.48
2017-01-31T00:00:00.000Z,811.15
2017-02-01T00:00:00.000Z,810.32
2017-02-02T00:00:00.000Z,809.55
2017-02-03T00:00:00.000Z,811.16
2017-02-06T00:00:00.000Z,812.99
2017-02-07T00:00:00.000Z,813.17
2017-02-08T00:00:00.000Z,811.69
2017-02-09T00:00:00.000Z,812.56
2017-02-10T00:00:00.000Z,815.91
2017-02-13T00:00:00.000Z,814.85
2017-02-14T00:00:00.000Z,813.97
2017-02-15T00:00:00.000Z,814.91
2017-02-16T00:00:00.000Z,815.35
2017-02-17T00:00:00.000Z,814.35
2017-02-20T00:00:00.000Z,813.19
2017-02-21T00:00:00.000Z,813.93
2017-02-22T00:00:00.000Z,814.87
2017-02-23T00:00:00.000Z,813.84
2017-02-24T00:00:00.000Z,810.67
2017-02-27T00:00:00.000Z,811.44
2017-02-28T00:00:00.000Z,814.32
